Chapitre 4 Analyses descriptives bivariées | Analyser des données avec R
…
Pour la suite de l’analyse, on peut, comme réalisé plus haut, reconfigurer le jeu de données Blink de telle sorte à bien avoir les conditions testées dans une même colonne et les valeurs correspondantes dans la colonne d’à côté, avec la modalité Straight en tant que première modalité à considérer dans les fonctions à suivre. Le nouveau jeu de données s’appelle alors Blink2.

## # A tibble: 24 × 3
##    Subject Condition   Blink_rate
##    <fct>   <fct>            <dbl>
##  1 S01     Straight          24  
##  2 S01     Oscillating       15  
##  3 S02     Straight          19.5
##  4 S02     Oscillating        6.6
##  5 S03     Straight           8.2
##  6 S03     Oscillating        1.9
##  7 S04     Straight           8.5
##  8 S04     Oscillating        1.5
##  9 S05     Straight          12.1
## 10 S05     Oscillating        1.1
## # … with 14 more rows
…
