2 Importation et manipulation d’une base de données – Analyser des données avec R
…
RStudio nous montre tout le jeu de données dans la Console, ce qui n’est pas très utile, d’autant plus que l’on peut perdre de vue la première ligne de titre lorsque le jeu de données contient beaucoup de lignes. Retournons donc au format tibble grâce à la fonction as_tibble() du package tibble, et voyons ce qu’il se passe lorsqu’on lance à nouveau le nom iris dans la Console.

library(tibble)
iris <- as_tibble(x = iris)
iris

# A tibble: 150 × 5
   Sepal.Length Sepal.Width Petal.Length Petal.Width Species
          <dbl>       <dbl>        <dbl>       <dbl> <chr>  
 1          5.1         3.5          1.4         0.2 setosa 
 2          4.9         3            1.4         0.2 setosa 
 3          4.7         3.2          1.3         0.2 setosa 
 4          4.6         3.1          1.5         0.2 setosa 
 5          5           3.6          1.4         0.2 setosa 
 6          5.4         3.9          1.7         0.4 setosa 
 7          4.6         3.4          1.4         0.3 setosa 
 8          5           3.4          1.5         0.2 setosa 
 9          4.4         2.9          1.4         0.2 setosa 
10          4.9         3.1          1.5         0.1 setosa 
# ℹ 140 more rows
…
4.3 Sélectionner des variables avec select()

Certains jeux de données peuvent être très larges, c’est-à-dire qu’ils peuvent contenir beaucoup de colonnes, parfois inutiles, et qui peuvent être gênantes lorsque l’on veut avoir une vue claire du contenu du jeu de données. La fonction select() du package dplyr permet de sélectionner des colonnes facilement.

iris |> 
  dplyr::select(Petal.Length, Petal.Width, Species)

# A tibble: 150 × 3
   Petal.Length Petal.Width Species
          <dbl>       <dbl> <fct>  
 1          1.4         0.2 setosa 
 2          1.4         0.2 setosa 
 3          1.3         0.2 setosa 
 4          1.5         0.2 setosa 
 5          1.4         0.2 setosa 
 6          1.7         0.4 setosa 
 7          1.4         0.3 setosa 
 8          1.5         0.2 setosa 
 9          1.4         0.2 setosa 
10          1.5         0.1 setosa 
# ℹ 140 more rows

4.4 Renommer des variables avec rename()

Il est possible que certains noms de variables ne soient pas clairs ou trop longs, voire mal écrits, ce qui peut être gênant pour écrire un code le plus lisible possible. La fonction rename() du package dplyr permet de gérer cela. Dans l’exemple ci-dessous, on observe que le nouveau nom doit être écrit à gauche du signe =, alors que l’ancien nom doit être écrit à droite du signe =. Si le nom d’origine contient au moins une espace entre deux mots, ou encore s’il contient des caractères spéciaux, il convient d’encadrer le nom à remplacer par des guillemets (” “).

iris |> 
  rename(Sepal_long = Sepal.Length,
         Sepal_lar = Sepal.Width,
         Petal_long = Petal.Length,
         Petal_lar = Petal.Width,
         Especes = Species)

# A tibble: 150 × 5
   Sepal_long Sepal_lar Petal_long Petal_lar Especes
        <dbl>     <dbl>      <dbl>     <dbl> <fct>  
 1        5.1       3.5        1.4       0.2 setosa 
 2        4.9       3          1.4       0.2 setosa 
 3        4.7       3.2        1.3       0.2 setosa 
 4        4.6       3.1        1.5       0.2 setosa 
 5        5         3.6        1.4       0.2 setosa 
 6        5.4       3.9        1.7       0.4 setosa 
 7        4.6       3.4        1.4       0.3 setosa 
 8        5         3.4        1.5       0.2 setosa 
 9        4.4       2.9        1.4       0.2 setosa 
10        4.9       3.1        1.5       0.1 setosa 
# ℹ 140 more rows

Cette méthode visant à renommer les variables pour modifier un caractère ou plusieurs caractères peut être à nouveau très fastidieuse en présence de nombreuses variables à renommer car mal écrite au départ. La fonction clean_names() du package janitor pourrait alors faire gagner beaucoup de temps. Cette fonction réécrit les noms des variables pour qu’elles soient titrées (nommées) conformément à certains standards, à savoir : pas de points en général dans les noms des variables, plutôt des tirets du bas ; éviter les majuscules dans les noms d’objet ; éviter les caractères spéciaux ; etc. Voilà ce que cela donnerait :

library(janitor)
iris |>
  clean_names()

# A tibble: 150 × 5
   sepal_length sepal_width petal_length petal_width species
          <dbl>       <dbl>        <dbl>       <dbl> <fct>  
 1          5.1         3.5          1.4         0.2 setosa 
 2          4.9         3            1.4         0.2 setosa 
 3          4.7         3.2          1.3         0.2 setosa 
 4          4.6         3.1          1.5         0.2 setosa 
 5          5           3.6          1.4         0.2 setosa 
 6          5.4         3.9          1.7         0.4 setosa 
 7          4.6         3.4          1.4         0.3 setosa 
 8          5           3.4          1.5         0.2 setosa 
 9          4.4         2.9          1.4         0.2 setosa 
10          4.9         3.1          1.5         0.1 setosa 
# ℹ 140 more rows

4.5 Créer des variables avec mutate()

Certaines analyses peuvent nécessiter d’ajouter des variables à partir de calculs réalisés sur des variables qui existent déjà dans le jeu de données. La fonction mutate(), du package dplyr, et que nous avons déjà rencontrée précédemment, permet cela. Dans l’exemple ci-dessous, on observe que le nom de la nouvelle variable à créer est à gauche du signe = et que le calcul créant les nouvelles valeurs est décrit à droite du signe =.

iris |>
  mutate(ratio_sepal = Sepal.Length / Sepal.Width,
         ratio_petal = Petal.Length / Petal.Width)

# A tibble: 150 × 7
   Sepal.Length Sepal.Width Petal.Length Petal.Width Species ratio_sepal
          <dbl>       <dbl>        <dbl>       <dbl> <fct>         <dbl>
 1          5.1         3.5          1.4         0.2 setosa         1.46
 2          4.9         3            1.4         0.2 setosa         1.63
 3          4.7         3.2          1.3         0.2 setosa         1.47
 4          4.6         3.1          1.5         0.2 setosa         1.48
 5          5           3.6          1.4         0.2 setosa         1.39
 6          5.4         3.9          1.7         0.4 setosa         1.38
 7          4.6         3.4          1.4         0.3 setosa         1.35
 8          5           3.4          1.5         0.2 setosa         1.47
 9          4.4         2.9          1.4         0.2 setosa         1.52
10          4.9         3.1          1.5         0.1 setosa         1.58
# ℹ 140 more rows
# ℹ 1 more variable: ratio_petal <dbl>
…
Supérieur ou égal

>=

Différent de

!=

De plus, dans la configuration du code, ces opérateurs peuvent être couplés à l’opérateur | (OU) et à l’opérateur & (ET). Dans l’exemple ci-dessous, le code permet, à partir du jeu de données iris, de ne garder que les lignes du jeu de données qui contiennent les noms d’espèce setosa OU virginica, ET en même temps qui affichent une longueur de sépale inférieure ou égale à 5.

iris |>
  filter((Species == "setosa" | Species == "virginica") &
           Sepal.Length <= 5)

# A tibble: 29 × 5
   Sepal.Length Sepal.Width Petal.Length Petal.Width Species
          <dbl>       <dbl>        <dbl>       <dbl> <fct>  
 1          4.9         3            1.4         0.2 setosa 
 2          4.7         3.2          1.3         0.2 setosa 
 3          4.6         3.1          1.5         0.2 setosa 
 4          5           3.6          1.4         0.2 setosa 
 5          4.6         3.4          1.4         0.3 setosa 
 6          5           3.4          1.5         0.2 setosa 
 7          4.4         2.9          1.4         0.2 setosa 
 8          4.9         3.1          1.5         0.1 setosa 
 9          4.8         3.4          1.6         0.2 setosa 
10          4.8         3            1.4         0.1 setosa 
# ℹ 19 more rows

4.7 Réordonner les lignes avec arrange()

On peut vouloir trier les lignes du jeu de données selon un certain ordre, en fonction des valeurs d’une variable donnée. La fonction arrange() du package dplyr est très utile pour gérer ce genre de réalisation. L’exemple ci-dessous conduit à trier les données selon un ordre croissant en fonction des valeurs de la variable Sepal.Length. Le fait de mettre le symbole - devant le nom de la variable aurait conduit à un tri décroissant.

iris |>
  arrange(Sepal.Length)

# A tibble: 150 × 5
   Sepal.Length Sepal.Width Petal.Length Petal.Width Species
          <dbl>       <dbl>        <dbl>       <dbl> <fct>  
 1          4.3         3            1.1         0.1 setosa 
 2          4.4         2.9          1.4         0.2 setosa 
 3          4.4         3            1.3         0.2 setosa 
 4          4.4         3.2          1.3         0.2 setosa 
 5          4.5         2.3          1.3         0.3 setosa 
 6          4.6         3.1          1.5         0.2 setosa 
 7          4.6         3.4          1.4         0.3 setosa 
 8          4.6         3.6          1           0.2 setosa 
 9          4.6         3.2          1.4         0.2 setosa 
10          4.7         3.2          1.3         0.2 setosa 
# ℹ 140 more rows
…
Au cours des illustrations montrant l’usage des fonctions select() jusqu’à summarise(), il aura été possible de noter que les commandes n’écrasaient pas le jeu de données initial, ni ne créaient de nouveaux jeux de données, car aucune assignation à un nom n’était faite. Lorsqu’une assignation est réalisée, il est conseillé d’utiliser un nouveau nom, différent de celui utilisé pour le jeu de données initial, pour pouvoir revenir au jeu de données originel lorsque cela est souhaité. Ci-dessous un exemple de création d’un nouvel objet de type tableau (assigné au nom iris2) à partir de l’utilisation de la plupart des fonctions que nous venons de voir et qui peuvent être utilisées dans un même bloc de code grâce au pipe (|>) :

iris2 <-
  iris |>
  dplyr::select(Petal.Length, Petal.Width, Species) |>
  clean_names() |>
  mutate(petal_ratio = petal_length / petal_width) |>
  filter(
    (species == "setosa" |
            species == "virginica") & petal_ratio > 3
    ) |>
  arrange(-petal_ratio)
iris2

# A tibble: 65 × 4
   petal_length petal_width species petal_ratio
          <dbl>       <dbl> <fct>         <dbl>
 1          1.5         0.1 setosa         15  
 2          1.5         0.1 setosa         15  
 3          1.4         0.1 setosa         14  
 4          1.4         0.1 setosa         14  
 5          1.1         0.1 setosa         11  
 6          1.9         0.2 setosa          9.5
 7          1.7         0.2 setosa          8.5
 8          1.6         0.2 setosa          8  
 9          1.6         0.2 setosa          8  
10          1.6         0.2 setosa          8  
# ℹ 55 more rows
…
iris2 <-
  iris |>
  mutate(
    id = rep(1:50, each = 3),
    date = rep(c(2001:2003), times = 50)
    ) |>
  dplyr::select(id, date, Species,  everything()) |>
  arrange(id, date) |>
  as_tibble()
iris2

# A tibble: 150 × 7
      id  date Species Sepal.Length Sepal.Width Petal.Length Petal.Width
   <int> <int> <fct>          <dbl>       <dbl>        <dbl>       <dbl>
 1     1  2001 setosa           5.1         3.5          1.4         0.2
 2     1  2002 setosa           4.9         3            1.4         0.2
 3     1  2003 setosa           4.7         3.2          1.3         0.2
 4     2  2001 setosa           4.6         3.1          1.5         0.2
 5     2  2002 setosa           5           3.6          1.4         0.2
 6     2  2003 setosa           5.4         3.9          1.7         0.4
 7     3  2001 setosa           4.6         3.4          1.4         0.3
 8     3  2002 setosa           5           3.4          1.5         0.2
 9     3  2003 setosa           4.4         2.9          1.4         0.2
10     4  2001 setosa           4.9         3.1          1.5         0.1
# ℹ 140 more rows

La fonction pivot_wider() permet alors de mettre en colonnes les valeurs des variables sélectionnées pour chacune des trois modalités de la variable visée, ici la variable date dans l’exemple ci-dessous.

library(tidyr)
iris3 <- 
  iris2 |> 
  pivot_wider(
    names_from = date,
    values_from = Sepal.Length : Petal.Width
    )
iris3

# A tibble: 52 × 14
      id Species Sepal.Length_2001 Sepal.Length_2002 Sepal.Length_2003
   <int> <fct>               <dbl>             <dbl>             <dbl>
 1     1 setosa                5.1               4.9               4.7
 2     2 setosa                4.6               5                 5.4
 3     3 setosa                4.6               5                 4.4
 4     4 setosa                4.9               5.4               4.8
 5     5 setosa                4.8               4.3               5.8
 6     6 setosa                5.7               5.4               5.1
 7     7 setosa                5.7               5.1               5.4
 8     8 setosa                5.1               4.6               5.1
 9     9 setosa                4.8               5                 5  
10    10 setosa                5.2               5.2               4.7
# ℹ 42 more rows
# ℹ 9 more variables: Sepal.Width_2001 <dbl>, Sepal.Width_2002 <dbl>,
#   Sepal.Width_2003 <dbl>, Petal.Length_2001 <dbl>, Petal.Length_2002 <dbl>,
#   Petal.Length_2003 <dbl>, Petal.Width_2001 <dbl>, Petal.Width_2002 <dbl>,
#   Petal.Width_2003 <dbl>
…
# Après
iris |> 
  pivot_longer(
    cols = c(-Species),
    names_to = "Parameter",
    values_to = "Value"
    )

# A tibble: 600 × 3
   Species Parameter    Value
   <fct>   <chr>        <dbl>
 1 setosa  Sepal.Length   5.1
 2 setosa  Sepal.Width    3.5
 3 setosa  Petal.Length   1.4
 4 setosa  Petal.Width    0.2
 5 setosa  Sepal.Length   4.9
 6 setosa  Sepal.Width    3  
 7 setosa  Petal.Length   1.4
 8 setosa  Petal.Width    0.2
 9 setosa  Sepal.Length   4.7
10 setosa  Sepal.Width    3.2
# ℹ 590 more rows
…
# Après
iris3 |> 
  pivot_longer(
    cols = c(Sepal.Length_2001:Petal.Width_2003),
    names_to = c(".value", "date"),
    names_pattern = '(.*)_(.*)'
  )

# A tibble: 156 × 7
      id Species date  Sepal.Length Sepal.Width Petal.Length Petal.Width
   <int> <fct>   <chr>        <dbl>       <dbl>        <dbl>       <dbl>
 1     1 setosa  2001           5.1         3.5          1.4         0.2
 2     1 setosa  2002           4.9         3            1.4         0.2
 3     1 setosa  2003           4.7         3.2          1.3         0.2
 4     2 setosa  2001           4.6         3.1          1.5         0.2
 5     2 setosa  2002           5           3.6          1.4         0.2
 6     2 setosa  2003           5.4         3.9          1.7         0.4
 7     3 setosa  2001           4.6         3.4          1.4         0.3
 8     3 setosa  2002           5           3.4          1.5         0.2
 9     3 setosa  2003           4.4         2.9          1.4         0.2
10     4 setosa  2001           4.9         3.1          1.5         0.1
# ℹ 146 more rows
…
