Chapitre 2 Importation et manipulation d’une base de données | Analyser des données avec R
…
RStudio nous montre tout le jeu de données dans la Console, ce qui n’est pas très utile, d’autant plus que l’on peut perdre de vue la première ligne de titre lorsque le jeu de données contient beaucoup de lignes. Retournons donc au format tibble grâce à la fonction as_tibble() du package tibble, et voyons ce qu’il se passe lorsqu’on lance à nouveau le nom iris dans la Console.

iris <- as_tibble(x = iris)
iris

## # A tibble: 150 x 5
##    Sepal.Length Sepal.Width Petal.Length Petal.Width Species
##           <dbl>       <dbl>        <dbl>       <dbl> <chr>  
##  1          5.1         3.5          1.4         0.2 setosa 
##  2          4.9         3            1.4         0.2 setosa 
##  3          4.7         3.2          1.3         0.2 setosa 
##  4          4.6         3.1          1.5         0.2 setosa 
##  5          5           3.6          1.4         0.2 setosa 
##  6          5.4         3.9          1.7         0.4 setosa 
##  7          4.6         3.4          1.4         0.3 setosa 
##  8          5           3.4          1.5         0.2 setosa 
##  9          4.4         2.9          1.4         0.2 setosa 
## 10          4.9         3.1          1.5         0.1 setosa 
## # … with 140 more rows
…
Ici, le symbole %>% permet d’indiquer à R que toutes les fonctions qui sont écrites après ce symbole s’appliquent à ce qui a été défini avant ce symbole. La fonction mutate(), dont nous reparlerons peu après, permet de créer de nouvelles variables dans le cadre de cette stratégie, soit en écrasant les anciennes variables si les anciens noms sont conservés, soit en créant de nouvelles variables si de nouveaux noms sont utilisés. Remarquons également qu’avec ce code, nous venons de créer un nouvel objet (en l’assignant à nouveau au nomiris) à partir de l’ancien objet, mais dont on a transformé les types des variables, perdant dans le même temps l’ancien objet.

2.4.3 Sélectionner des variables avec select()

Certains jeux de données peuvent être très larges, c’est-à-dire qu’ils peuvent contenir beaucoup de colonnes, parfois inutiles, et qui peuvent être gênantes lorsque l’on veut avoir une vue claire du contenu du jeu de données. La fonction select() du package dplyr permet de sélectionner des colonnes facilement.

iris %>% 
  select(Petal.Length, Petal.Width, Species)

## # A tibble: 150 x 3
##    Petal.Length Petal.Width Species
##           <dbl>       <dbl> <fct>  
##  1          1.4         0.2 setosa 
##  2          1.4         0.2 setosa 
##  3          1.3         0.2 setosa 
##  4          1.5         0.2 setosa 
##  5          1.4         0.2 setosa 
##  6          1.7         0.4 setosa 
##  7          1.4         0.3 setosa 
##  8          1.5         0.2 setosa 
##  9          1.4         0.2 setosa 
## 10          1.5         0.1 setosa 
## # … with 140 more rows

2.4.4 Renommer des variables avec rename()

Il est possible que certains titres de variables ne soient pas clairs ou trop longs, ce qui peut être gênant pour écrire un code le plus lisible possible. La fonction rename() du package dplyr permet de gérer cela. Dans l’exemple ci-dessous, on observe que le nouveau nom doit être écrit à gauche du signal =, alors que l’ancien nom doit être écrit à droite du signe =.

iris %>% 
  rename(Sepal_long = Sepal.Length,
         Sepal_lar = Sepal.Width,
         Petal_long = Petal.Length,
         Petal_lar = Petal.Width,
         Especes = Species)

## # A tibble: 150 x 5
##    Sepal_long Sepal_lar Petal_long Petal_lar Especes
##         <dbl>     <dbl>      <dbl>     <dbl> <fct>  
##  1        5.1       3.5        1.4       0.2 setosa 
##  2        4.9       3          1.4       0.2 setosa 
##  3        4.7       3.2        1.3       0.2 setosa 
##  4        4.6       3.1        1.5       0.2 setosa 
##  5        5         3.6        1.4       0.2 setosa 
##  6        5.4       3.9        1.7       0.4 setosa 
##  7        4.6       3.4        1.4       0.3 setosa 
##  8        5         3.4        1.5       0.2 setosa 
##  9        4.4       2.9        1.4       0.2 setosa 
## 10        4.9       3.1        1.5       0.1 setosa 
## # … with 140 more rows

2.4.5 Créer des variables avec mutate()

Certaines analyses peuvent nécessiter d’ajouter des variables à partir de calculs réalisés sur des variables qui existent déjà dans le jeu de données. La fonction mutate(), du package dplyr, et que nous avons déjà rencontrée précédemment, permet cela. Dans l’exemple ci-dessous, on observe que le nom de la nouvelle variable à créer est à gauche du signe = et que le calcul créant les nouvelles valeurs est décrit à droite du signe =.

iris %>% 
  mutate(ratio_sepal = Sepal.Length / Sepal.Width, 
         ratio_petal = Petal.Length / Petal.Width)

## # A tibble: 150 x 7
##    Sepal.Length Sepal.Width Petal.Length Petal.Width Species ratio_sepal
##           <dbl>       <dbl>        <dbl>       <dbl> <fct>         <dbl>
##  1          5.1         3.5          1.4         0.2 setosa         1.46
##  2          4.9         3            1.4         0.2 setosa         1.63
##  3          4.7         3.2          1.3         0.2 setosa         1.47
##  4          4.6         3.1          1.5         0.2 setosa         1.48
##  5          5           3.6          1.4         0.2 setosa         1.39
##  6          5.4         3.9          1.7         0.4 setosa         1.38
##  7          4.6         3.4          1.4         0.3 setosa         1.35
##  8          5           3.4          1.5         0.2 setosa         1.47
##  9          4.4         2.9          1.4         0.2 setosa         1.52
## 10          4.9         3.1          1.5         0.1 setosa         1.58
## # … with 140 more rows, and 1 more variable: ratio_petal <dbl>
…
Supérieur ou égal
>=

Différent de
!=

De plus, dans la configuration du code, ces opérateurs peuvent être couplés à l’opérateur | (OU) et à l’opérateur & (ET). Dans l’exemple ci-dessous, le code permet, à partir du jeu de données iris, de ne garder que les lignes du jeu de données qui contiennent les noms d’espèce setosa OU virginica, ET en même temps qui affichent une longueur de sépale inférieure ou égale à 5.

iris %>% 
  filter((Species == "setosa" | Species == "virginica") &
          Sepal.Length <= 5)

## # A tibble: 29 x 5
##    Sepal.Length Sepal.Width Petal.Length Petal.Width Species
##           <dbl>       <dbl>        <dbl>       <dbl> <fct>  
##  1          4.9         3            1.4         0.2 setosa 
##  2          4.7         3.2          1.3         0.2 setosa 
##  3          4.6         3.1          1.5         0.2 setosa 
##  4          5           3.6          1.4         0.2 setosa 
##  5          4.6         3.4          1.4         0.3 setosa 
##  6          5           3.4          1.5         0.2 setosa 
##  7          4.4         2.9          1.4         0.2 setosa 
##  8          4.9         3.1          1.5         0.1 setosa 
##  9          4.8         3.4          1.6         0.2 setosa 
## 10          4.8         3            1.4         0.1 setosa 
## # … with 19 more rows

2.4.7 Arranger les lignes avec arrange()

On peut vouloir que le jeu de données soit arrangé, ou trié, selon un certain ordre, en fonction des valeurs d’une variable donnée. La fonction arrange() du package dplyr est très utile pour gérer ce genre de réalisation. L’exemple ci-dessous conduit à trier les données selon un ordre croissant en fonction des valeurs de la variable Sepal.Length. Le fait de mettre le symbole - devant le nom de la variable aurait conduit à un tri décroissant.

iris %>% 
  arrange(Sepal.Length)

## # A tibble: 150 x 5
##    Sepal.Length Sepal.Width Petal.Length Petal.Width Species
##           <dbl>       <dbl>        <dbl>       <dbl> <fct>  
##  1          4.3         3            1.1         0.1 setosa 
##  2          4.4         2.9          1.4         0.2 setosa 
##  3          4.4         3            1.3         0.2 setosa 
##  4          4.4         3.2          1.3         0.2 setosa 
##  5          4.5         2.3          1.3         0.3 setosa 
##  6          4.6         3.1          1.5         0.2 setosa 
##  7          4.6         3.4          1.4         0.3 setosa 
##  8          4.6         3.6          1           0.2 setosa 
##  9          4.6         3.2          1.4         0.2 setosa 
## 10          4.7         3.2          1.3         0.2 setosa 
## # … with 140 more rows
…
iris2 <- 
  iris %>% 
  mutate(id = rep(1:50, times = 3)) %>%
  select(id, Species,  everything()) %>%
  arrange(id, Species) %>%
  as_tibble()
iris2

## # A tibble: 150 x 6
##       id Species    Sepal.Length Sepal.Width Petal.Length Petal.Width
##    <int> <fct>             <dbl>       <dbl>        <dbl>       <dbl>
##  1     1 setosa              5.1         3.5          1.4         0.2
##  2     1 versicolor          7           3.2          4.7         1.4
##  3     1 virginica           6.3         3.3          6           2.5
##  4     2 setosa              4.9         3            1.4         0.2
##  5     2 versicolor          6.4         3.2          4.5         1.5
##  6     2 virginica           5.8         2.7          5.1         1.9
##  7     3 setosa              4.7         3.2          1.3         0.2
##  8     3 versicolor          6.9         3.1          4.9         1.5
##  9     3 virginica           7.1         3            5.9         2.1
## 10     4 setosa              4.6         3.1          1.5         0.2
## # … with 140 more rows

La fonction pivot_wider() permet alors de mettre en colonnes les valeurs des variables sélectionnées pour chacune des trois modalités de la variable Species (ci-dessous, seules les trois colonnes relatives à la longueur des sépales des fleurs (Sepal.Length) sont montrées, mais le reste a bien été crée).

iris3 <- 
  iris2 %>% 
  pivot_wider(names_from = Species, 
              values_from = Sepal.Length : Petal.Width)
iris3

## # A tibble: 50 x 13
##       id Sepal.Length_se… Sepal.Length_ve… Sepal.Length_vi… Sepal.Width_set…
##    <int>            <dbl>            <dbl>            <dbl>            <dbl>
##  1     1              5.1              7                6.3              3.5
##  2     2              4.9              6.4              5.8              3  
##  3     3              4.7              6.9              7.1              3.2
##  4     4              4.6              5.5              6.3              3.1
##  5     5              5                6.5              6.5              3.6
##  6     6              5.4              5.7              7.6              3.9
##  7     7              4.6              6.3              4.9              3.4
##  8     8              5                4.9              7.3              3.4
##  9     9              4.4              6.6              6.7              2.9
## 10    10              4.9              5.2              7.2              3.1
## # … with 40 more rows, and 8 more variables: Sepal.Width_versicolor <dbl>,
## #   Sepal.Width_virginica <dbl>, Petal.Length_setosa <dbl>,
## #   Petal.Length_versicolor <dbl>, Petal.Length_virginica <dbl>,
## #   Petal.Width_setosa <dbl>, Petal.Width_versicolor <dbl>,
## #   Petal.Width_virginica <dbl>

L’argument names_from a permis d’indiquer la variable à partir de laquelle on a dispatché les valeurs en colonnes, et l’argument values_from a permis de préciser les variables pour lesquelles on voulait que les valeurs numériques soient dispatchées. L’utilisation des deux-points (:) nous a permis de sélectionner toutes les variables allant de Sepal.Length à Petal.Width dans le jeu de données.

Dans une situation inverse à celle que nous venons de voir, nous pourrions avoir les données représentées en colonnes (comme c’est le cas avec le jeu de données crée iris3), alors que nous les voudrions en lignes (comme c’était le cas avec le jeu de données iris à l’origine). La fonction pivot_longer permet de faire cette conversion.

iris4 <- 
  iris3 %>% 
  pivot_longer(cols = c(Sepal.Length_setosa, Sepal.Length_versicolor, Sepal.Length_virginica), 
               names_to = "Species", 
               values_to = "Sepal_len") %>%
  select(id, Species, Sepal_len)
iris4

## # A tibble: 150 x 3
##       id Species                 Sepal_len
##    <int> <chr>                       <dbl>
##  1     1 Sepal.Length_setosa           5.1
##  2     1 Sepal.Length_versicolor       7  
##  3     1 Sepal.Length_virginica        6.3
##  4     2 Sepal.Length_setosa           4.9
##  5     2 Sepal.Length_versicolor       6.4
##  6     2 Sepal.Length_virginica        5.8
##  7     3 Sepal.Length_setosa           4.7
##  8     3 Sepal.Length_versicolor       6.9
##  9     3 Sepal.Length_virginica        7.1
## 10     4 Sepal.Length_setosa           4.6
## # … with 140 more rows
…
