3 Analyses univariées – Analyser des données avec R
…
iris |>
  mutate(id = as.factor(rep(1:50, times = 3)),
         id_outlier = ifelse(is_outlier(x = Sepal.Length), id, "")) |>
  dplyr::select(id, Sepal.Length, id_outlier) |> 
  tibble::tibble()

# A tibble: 150 × 3
   id    Sepal.Length id_outlier
   <fct>        <dbl> <chr>     
 1 1              5.1 ""        
 2 2              4.9 ""        
 3 3             12   "3"       
 4 4              4.6 ""        
 5 5              5   ""        
 6 6              5.4 ""        
 7 7              4.6 ""        
 8 8              5   ""        
 9 9              4.4 ""        
10 10             4.9 ""        
# ℹ 140 more rows
…
Figure 3.14: Exemples de positions de la moyenne et de la médiane dans le cadre d’une distribution asymétrique

3.2 Variables qualitatives

3.2.1 Visualiser la distribution de la variable

Comme dans le cadre de variables quantitatives, une bonne pratique est de visualiser graphiquement la distribution d’une variable qualitative avant de l’analyser. Ici, il s’agit plus précisément de prendre connaissance des effectifs correspondant aux différentes modalités de la variable. Une manière rapide de procéder pour cela est d’utiliser la fonction ggplot() et la fonction geom_bar(). Illustrons cela avec le jeu de données diamonds, qui contient notamment la variable qualitative color (Figure 3.15).

# Aperçu du jeu de données
diamonds

# A tibble: 53,940 × 10
   carat cut       color clarity depth table price     x     y     z
   <dbl> <ord>     <ord> <ord>   <dbl> <dbl> <int> <dbl> <dbl> <dbl>
 1  0.23 Ideal     E     SI2      61.5    55   326  3.95  3.98  2.43
 2  0.21 Premium   E     SI1      59.8    61   326  3.89  3.84  2.31
 3  0.23 Good      E     VS1      56.9    65   327  4.05  4.07  2.31
 4  0.29 Premium   I     VS2      62.4    58   334  4.2   4.23  2.63
 5  0.31 Good      J     SI2      63.3    58   335  4.34  4.35  2.75
 6  0.24 Very Good J     VVS2     62.8    57   336  3.94  3.96  2.48
 7  0.24 Very Good I     VVS1     62.3    57   336  3.95  3.98  2.47
 8  0.26 Very Good H     SI1      61.9    55   337  4.07  4.11  2.53
 9  0.22 Fair      E     VS2      65.1    61   337  3.87  3.78  2.49
10  0.23 Very Good H     VS1      59.4    61   338  4     4.05  2.39
# ℹ 53,930 more rows
…
